-------------------------------------------------------------------------------
Test set: com.platzi.calcula.movies.service.MovieServiceTest
-------------------------------------------------------------------------------
Tests run: 2, Failures: 0, Errors: 0, Skipped: 0, Time elapsed: 1.099 sec
